<define-tag pagetitle>DSA-4832-1 chromium</define-tag>
<define-tag report_date>2021-1-16</define-tag>
<define-tag secrefs>CVE-2020-15995 CVE-2020-16043 CVE-2021-21106 CVE-2021-21107 CVE-2021-21108 CVE-2021-21109 CVE-2021-21110 CVE-2021-21111 CVE-2021-21112 CVE-2021-21113 CVE-2021-21114 CVE-2021-21115 CVE-2021-21116 Bug#979533</define-tag>
<define-tag packages>chromium</define-tag>
<define-tag isvulnerable>yes</define-tag>
<define-tag fixed>yes</define-tag>
<define-tag fixed-section>no</define-tag>

#use wml::debian::security



</dl>
