<define-tag pagetitle>DSA-4886-1 chromium</define-tag>
<define-tag report_date>2021-4-06</define-tag>
<define-tag secrefs>CVE-2021-21159 CVE-2021-21160 CVE-2021-21161 CVE-2021-21162 CVE-2021-21163 CVE-2021-21165 CVE-2021-21166 CVE-2021-21167 CVE-2021-21168 CVE-2021-21169 CVE-2021-21170 CVE-2021-21171 CVE-2021-21172 CVE-2021-21173 CVE-2021-21174 CVE-2021-21175 CVE-2021-21176 CVE-2021-21177 CVE-2021-21178 CVE-2021-21179 CVE-2021-21180 CVE-2021-21181 CVE-2021-21182 CVE-2021-21183 CVE-2021-21184 CVE-2021-21185 CVE-2021-21186 CVE-2021-21187 CVE-2021-21188 CVE-2021-21189 CVE-2021-21190 CVE-2021-21191 CVE-2021-21192 CVE-2021-21193 CVE-2021-21194 CVE-2021-21195 CVE-2021-21196 CVE-2021-21197 CVE-2021-21198 CVE-2021-21199</define-tag>
<define-tag packages>chromium</define-tag>
<define-tag isvulnerable>yes</define-tag>
<define-tag fixed>yes</define-tag>
<define-tag fixed-section>no</define-tag>

#use wml::debian::security



</dl>
