<define-tag pagetitle>DLA-2638-1 jackson-databind</define-tag>
<define-tag report_date>2021-04-25</define-tag>
<define-tag secrefs>CVE-2020-24616 CVE-2020-24750 CVE-2020-35490 CVE-2020-35491 CVE-2020-35728 CVE-2020-36179 CVE-2020-36180 CVE-2020-36181 CVE-2020-36182 CVE-2020-36183 CVE-2020-36184 CVE-2020-36185 CVE-2020-36186 CVE-2020-36187 CVE-2020-36188 CVE-2020-36189 CVE-2021-20190</define-tag>
<define-tag packages>jackson-databind</define-tag>
<define-tag isvulnerable>yes</define-tag>
<define-tag fixed>yes</define-tag>
<define-tag fixed-section>no</define-tag>

#use wml::debian::security

