<define-tag pagetitle>DLA-1148-1 golang</define-tag>
<define-tag report_date>2017-10-27</define-tag>
<define-tag secrefs>CVE-2017-15041</define-tag>
<define-tag packages>golang</define-tag>
<define-tag isvulnerable>yes</define-tag>
<define-tag fixed>yes</define-tag>
<define-tag fixed-section>no</define-tag>

#use wml::debian::security

