<define-tag pagetitle>DLA-2479-1 thunderbird</define-tag>
<define-tag report_date>2020-12-04</define-tag>
<define-tag secrefs>CVE-2020-26970</define-tag>
<define-tag packages>thunderbird</define-tag>
<define-tag isvulnerable>yes</define-tag>
<define-tag fixed>yes</define-tag>
<define-tag fixed-section>no</define-tag>

#use wml::debian::security

