<define-tag pagetitle>DLA-2506-1 awstats</define-tag>
<define-tag report_date>2020-12-23</define-tag>
<define-tag secrefs>CVE-2020-29600 CVE-2020-35176 Bug#891469 Bug#977190</define-tag>
<define-tag packages>awstats</define-tag>
<define-tag isvulnerable>yes</define-tag>
<define-tag fixed>yes</define-tag>
<define-tag fixed-section>no</define-tag>

#use wml::debian::security

