<define-tag pagetitle>DLA-2190-1 ruby-json</define-tag>
<define-tag report_date>2020-04-28</define-tag>
<define-tag secrefs>CVE-2020-10663</define-tag>
<define-tag packages>ruby-json</define-tag>
<define-tag isvulnerable>yes</define-tag>
<define-tag fixed>yes</define-tag>
<define-tag fixed-section>no</define-tag>

#use wml::debian::security

