<define-tag pagetitle>DLA-2264-1 libvncserver</define-tag>
<define-tag report_date>2020-06-30</define-tag>
<define-tag secrefs>CVE-2019-20839 CVE-2020-14397 CVE-2020-14399 CVE-2020-14400 CVE-2020-14401 CVE-2020-14402 CVE-2020-14403 CVE-2020-14404 CVE-2020-14405</define-tag>
<define-tag packages>libvncserver</define-tag>
<define-tag isvulnerable>yes</define-tag>
<define-tag fixed>yes</define-tag>
<define-tag fixed-section>no</define-tag>

#use wml::debian::security

