<define-tag pagetitle>DLA-1345-1 perl</define-tag>
<define-tag report_date>2018-4-14</define-tag>
<define-tag secrefs>CVE-2018-6913</define-tag>
<define-tag packages>perl</define-tag>
<define-tag isvulnerable>yes</define-tag>
<define-tag fixed>yes</define-tag>
<define-tag fixed-section>no</define-tag>

#use wml::debian::security

