<define-tag pagetitle>DLA-1750-1 roundup</define-tag>
<define-tag report_date>2019-04-07</define-tag>
<define-tag secrefs>CVE-2019-10904</define-tag>
<define-tag packages>roundup</define-tag>
<define-tag isvulnerable>yes</define-tag>
<define-tag fixed>yes</define-tag>
<define-tag fixed-section>no</define-tag>

#use wml::debian::security

