<define-tag pagetitle>DLA-558-1 squid</define-tag>
<define-tag report_date>2016-7-25</define-tag>
<define-tag secrefs>CVE-2016-4554</define-tag>
<define-tag packages>squid</define-tag>
<define-tag isvulnerable>yes</define-tag>
<define-tag fixed>yes</define-tag>
<define-tag fixed-section>no</define-tag>

#use wml::debian::security

