<define-tag pagetitle>DLA-604-1 ruby-actionpack-3.2</define-tag>
<define-tag report_date>2016-8-28</define-tag>
<define-tag secrefs>CVE-2015-7576 CVE-2016-0751 CVE-2016-0752 CVE-2016-2097 CVE-2016-2098 CVE-2016-6316</define-tag>
<define-tag packages>ruby-actionpack-3.2</define-tag>
<define-tag isvulnerable>yes</define-tag>
<define-tag fixed>yes</define-tag>
<define-tag fixed-section>no</define-tag>

#use wml::debian::security

