<define-tag pagetitle>DLA-613-1 roundcube</define-tag>
<define-tag report_date>2016-9-8</define-tag>
<define-tag secrefs>CVE-2014-9587 CVE-2015-1433 CVE-2016-4069 Bug#822333 Bug#775576 Bug#776700</define-tag>
<define-tag packages>roundcube</define-tag>
<define-tag isvulnerable>yes</define-tag>
<define-tag fixed>yes</define-tag>
<define-tag fixed-section>no</define-tag>

#use wml::debian::security

